…
# Display the first few rows of the tibble
print(daily_totals)

# Find the latest date, total cases, and total deaths
max_date <- max(daily_totals$date)
us_total_cases <- sum(daily_totals$total_cases, na.rm = TRUE)
us_total_deaths <- sum(daily_totals$total_deaths, na.rm = TRUE)

```

```{r p1q1-sample}

# Your output should look similar to the following tibble: 
#
#   A tibble: 657 x 3
#       date          total_deaths   total_cases
#      <date>            <dbl>         <dbl>
#   1 2020-03-15           68          3595
#   2 2020-03-16           91          4502
#   3 2020-03-17          117          5901
#   4 2020-03-18          162          8345
#   5 2020-03-19          212         12387
#   6 2020-03-20          277         17998
#   7 2020-03-21          359         24507
#   8 2020-03-22          457         33050
#   9 2020-03-23          577         43474
#  10 2020-03-24          783         53899
# ... with 647 more rows
…
```

```{r p1q3-sample}

#  Your output should look similar to the following tibble: 
#  
#  date
#  total_deaths     >  the cumulative number of deaths up to and including the associated date
#  total_cases      >  the cumulative number of cases up to and including the associated date
#  delta_deaths_1   >  the number of new deaths since the previous day
#  delta_cases_1    >  the number of new cases since the previous day
#  delta_deaths_7   >  the average number of deaths in a seven-day period
#  delta_cases_7    >  the average number of cases in a seven-day period
#==
#  A tibble: 813 x 7
#    date           total_deaths   total_cases   delta_deaths_1    delta_cases_1  delta_deaths_7  delta_cases_7
#    <date>            <dbl>          <dbl>         <dbl>               <dbl>        <dbl>            <dbl>
#  1 2020-03-15           68          3600            0                     0         NA                NA 
#  2 2020-03-16           91          4507           23                   907         NA                NA 
#  3 2020-03-17          117          5906           26                  1399         NA                NA 
#  4 2020-03-18          162          8350           45                  2444         NA                NA 
#  5 2020-03-19          212         12393           50                  4043         NA                NA 
#  6 2020-03-20          277         18012           65                  5619         NA                NA 
#  7 2020-03-21          360         24528           83                  6516         NA                NA 
#  8 2020-03-22          458         33073           98                  8545       55.7              4210.
#  9 2020-03-23          579         43505          121                 10432       69.7              5571.
# 10 2020-03-24          785         53938          206                 10433       95.4              6862.
# ... with 803 more rows
…
