COVID 19 Analysis
…
# Find the latest date, total cases, and total deaths
max_date <- max(daily_totals$date)
us_total_cases <- sum(daily_totals$total_cases, na.rm = TRUE)
us_total_deaths <- sum(daily_totals$total_deaths, na.rm = TRUE)

# Your output should look similar to the following tibble: 
#
#   A tibble: 657 x 3
#       date          total_deaths   total_cases
#      <date>            <dbl>         <dbl>
#   1 2020-03-15           68          3595
#   2 2020-03-16           91          4502
#   3 2020-03-17          117          5901
#   4 2020-03-18          162          8345
#   5 2020-03-19          212         12387
#   6 2020-03-20          277         17998
#   7 2020-03-21          359         24507
#   8 2020-03-22          457         33050
#   9 2020-03-23          577         43474
#  10 2020-03-24          783         53899
# ... with 647 more rows
…
#  Your output should look similar to the following tibble: 
#  
#  date
#  total_deaths     >  the cumulative number of deaths up to and including the associated date
#  total_cases      >  the cumulative number of cases up to and including the associated date
#  delta_deaths_1   >  the number of new deaths since the previous day
#  delta_cases_1    >  the number of new cases since the previous day
#  delta_deaths_7   >  the average number of deaths in a seven-day period
#  delta_cases_7    >  the average number of cases in a seven-day period
#==
#  A tibble: 813 x 7
#    date           total_deaths   total_cases   delta_deaths_1    delta_cases_1  delta_deaths_7  delta_cases_7
#    <date>            <dbl>          <dbl>         <dbl>               <dbl>        <dbl>            <dbl>
#  1 2020-03-15           68          3600            0                     0         NA                NA 
#  2 2020-03-16           91          4507           23                   907         NA                NA 
#  3 2020-03-17          117          5906           26                  1399         NA                NA 
#  4 2020-03-18          162          8350           45                  2444         NA                NA 
#  5 2020-03-19          212         12393           50                  4043         NA                NA 
#  6 2020-03-20          277         18012           65                  5619         NA                NA 
#  7 2020-03-21          360         24528           83                  6516         NA                NA 
#  8 2020-03-22          458         33073           98                  8545       55.7              4210.
#  9 2020-03-23          579         43505          121                 10432       69.7              5571.
# 10 2020-03-24          785         53938          206                 10433       95.4              6862.
# ... with 803 more rows
…
# Your transformed data should look similar to the following tibble:  
#
# A tibble: 51 x 4
#     state                  date       total_deaths  total_cases
#     <chr>                 <date>          <dbl>       <dbl>
#  1 California           2021-12-31        76709      5515613
#  2 Texas                2021-12-31        76062      4574881
#  3 Florida              2021-12-31        62504      4166392
#  4 New York             2021-12-31        58993      3473970
#  5 Illinois             2021-12-31        31017      2154058
#  6 Pennsylvania         2021-12-31        36705      2036424
#  7 Ohio                 2021-12-31        29447      2016095
#  8 Georgia              2021-12-31        30283      1798497
#  9 Michigan             2021-12-31        28984      1706355
# 10 North Carolina       2021-12-31        19436      1685504
# ... with 41 more rows
…
# Your transformed data should look similar to the following tibble:
#
# A tibble: 51 x 4
#     state                   date           deaths_per_100k  cases_per_100k
#     <chr>                  <date>               <dbl>          <dbl>
#  1 North Dakota          2021-12-31             265.           22482.
#  2 Alaska                2021-12-31             130.           21310.
#  3 Rhode Island          2021-12-31             280.           21093.
#  4 South Dakota          2021-12-31             278.           20014.
#  5 Wyoming               2021-12-31             264.           19979.
#  6 Tennessee             2021-12-31             296.           19783.
#  7 Kentucky              2021-12-31             269.           19173.
#  8 Florida               2021-12-31             287.           19128.
#  9 Utah                  2021-12-31             113.           19088.
# 10 Wisconsin             2021-12-31             190.           19008.
# ... with 41 more rows
…
